{
	"id": "sobytes.crossplatform.picker",
	"name": "sobytes.crossplatform.picker",
	"description" : "A cross platform picker mimicing android layout.",
	"author": "Samuel East",
	"version": "1.0",
	"copyright":"Copyright 2015 SoBytes",
	"license":"Apache 2.0",
	"min-alloy-version": "1.1",
	"min-titanium-version":"3.0",
	"tags":"",
	"platforms":"android,ios"
}